…
# Multiple samples via group_by — initial volume taken per group
multi <- tibble(
  sample = rep(c("A", "B"), each = 11),
  time   = rep(seq(0, 300, 30), 2),
  volume = c(95, 89, 86, 83, 80, 77, 74, 73, 71, 69, 67,
             83, 77, 64, 61, 58, 45, 42, 35, 29, 17, 15)
)
multi |>
  group_by(sample) |>
  infiltration_cumulative(time = time, volume = volume)
#> # A tibble: 22 × 6
#> # Groups:   sample [2]
#>    sample  time volume .sqrt_time .volume_infiltrated .infiltration
#>    <chr>  <dbl>  <dbl>      <dbl>               <dbl>         <dbl>
#>  1 A          0     95       0                      0         0    
#>  2 A         30     89       5.48                   6         0.377
#>  3 A         60     86       7.75                   9         0.566
#>  4 A         90     83       9.49                  12         0.755
#>  5 A        120     80      11.0                   15         0.943
#>  6 A        150     77      12.2                   18         1.13 
#>  7 A        180     74      13.4                   21         1.32 
#>  8 A        210     73      14.5                   22         1.38 
#>  9 A        240     71      15.5                   24         1.51 
#> 10 A        270     69      16.4                   26         1.63 
#> # ℹ 12 more rows
…
