Van Genuchten parameters for Minidisk Infiltrometer analysis — minidisk_vg_params • tidysoilinfiltration
…
    Source

    Decagon Devices, Inc. (2005). Mini Disk Infiltrometer User's
Manual. Data accessed via the
infiltrodiscR package.

    See also

    infiltration_vg_params() to look up parameters by texture and
suction, parameter_A_zhang() to compute A analytically.

    Examples

minidisk_vg_params
#> # A tibble: 96 × 5
#>    texture    suction_cm     n alpha     A
#>    <chr>           <dbl> <dbl> <dbl> <dbl>
#>  1 sand              0.5  2.68 0.145 2.84 
#>  2 sand              1    2.68 0.145 2.40 
#>  3 sand              2    2.68 0.145 1.73 
#>  4 sand              3    2.68 0.145 1.24 
#>  5 sand              4    2.68 0.145 0.893
#>  6 sand              5    2.68 0.145 0.642
#>  7 sand              6    2.68 0.145 0.461
#>  8 sand              7    2.68 0.145 0.331
#>  9 loamy sand        0.5  2.28 0.124 2.99 
#> 10 loamy sand        1    2.28 0.124 2.79 
#> # ℹ 86 more rows
…
